…
``` r
trash_df = 
  readxl::read_excel(
    "./data/Trash-Wheel-Collection-Totals-8-6-19.xlsx", 
                     sheet="Mr. Trash Wheel", 
    range ="A2:N406") %>% 
  janitor::clean_names() %>% 
  filter(!is.na(dumpster)) %>% 
  mutate(sports_balls=as.integer(sports_balls)
  )
trash_df
```

    ## # A tibble: 344 x 14
    ##    dumpster month  year date                weight_tons volume_cubic_ya~
    ##       <dbl> <chr> <dbl> <dttm>                    <dbl>            <dbl>
    ##  1        1 May    2014 2014-05-16 00:00:00        4.31               18
    ##  2        2 May    2014 2014-05-16 00:00:00        2.74               13
    ##  3        3 May    2014 2014-05-16 00:00:00        3.45               15
    ##  4        4 May    2014 2014-05-17 00:00:00        3.1                15
    ##  5        5 May    2014 2014-05-17 00:00:00        4.06               18
    ##  6        6 May    2014 2014-05-20 00:00:00        2.71               13
    ##  7        7 May    2014 2014-05-21 00:00:00        1.91                8
    ##  8        8 May    2014 2014-05-28 00:00:00        3.7                16
    ##  9        9 June   2014 2014-06-05 00:00:00        2.52               14
    ## 10       10 June   2014 2014-06-11 00:00:00        3.76               18
    ## # ... with 334 more rows, and 8 more variables: plastic_bottles <dbl>,
    ## #   polystyrene <dbl>, cigarette_butts <dbl>, glass_bottles <dbl>,
    ## #   grocery_bags <dbl>, chip_bags <dbl>, sports_balls <int>,
    ## #   homes_powered <dbl>
…
Next, we combine precipitation datasets and convert month to a character
variable (the variable month.name is built into R and should be useful).
We also create a data set with only the 2017 Mr. Trash Wheel data,
because we’ll need it for the following paragraph.

``` r
precipitation_2017_2018_df=
  bind_rows(precipitation_2017_df,precipitation_2018_df) %>% 
  mutate(month=month.name[month])


precipitation_2017_2018_df
```

    ## # A tibble: 24 x 3
    ##    month     total  year
    ##    <chr>     <dbl> <dbl>
    ##  1 January    2.34  2017
    ##  2 February   1.46  2017
    ##  3 March      3.57  2017
    ##  4 April      3.99  2017
    ##  5 May        5.64  2017
    ##  6 June       1.4   2017
    ##  7 July       7.09  2017
    ##  8 August     4.44  2017
    ##  9 September  1.95  2017
    ## 10 October    0     2017
    ## # ... with 14 more rows
…
